{"count":338,"next":"https://ll.thespacedevs.com/2.0.0/launch/upcoming/?limit=10&offset=10","previous":null,"results":[{"id":"eed1132a-d5aa-4c9c-bc38-c8ccb98829b6","url":"https://ll.thespacedevs.com/2.0.0/launch/eed1132a-d5aa-4c9c-bc38-c8ccb98829b6/","launch_library_id":null,"slug":"falcon-9-block-5-starlink-group-9-9","name":"Falcon 9 Block 5 | Starlink Group 9-9","status":{"id":1,"name":"Go"},"net":"2024-10-29T11:44:00Z","window_end":"2024-10-29T12:40:00Z","window_start":"2024-10-29T11:44:00Z","inhold":false,"tbdtime":false,"tbddate":false,"probability":null,"holdreason":"","failreason":"","hashtag":null,"launch_service_provider":{"id":121,"url":"https://ll.thespacedevs.com/2.0.0/agencies/121/","name":"SpaceX","type":"Commercial"},"rocket":{"id":8392,"configuration":{"id":164,"launch_library_id":188,"url":"https://ll.thespacedevs.com/2.0.0/config/launcher/164/","name":"Falcon 9","family":"Falcon","full_name":"Falcon 9 Block 5","variant":"Block 5"}},"mission":{"id":6977,"launch_library_id":null,"name":"Starlink Group 9-9","description":"A batch of 20 satellites for the Starlink mega-constellation - SpaceX's project for space-based Internet communication system.","launch_designator":null,"type":"Communications","orbit":{"id":8,"name":"Low Earth Orbit","abbrev":"LEO"}},"pad":{"id":16,"url":"https://ll.thespacedevs.com/2.0.0/pad/16/","agency_id":null,"name":"Space Launch Complex 4E","info_url":null,"wiki_url":"https://en.wikipedia.org/wiki/Vandenberg_Space_Launch_Complex_4#SLC-4E","map_url":"https://www.google.com/maps?q=34.632,-120.611","latitude":"34.632","longitude":"-120.611","location":{"id":11,"url":"https://ll.thespacedevs.com/2.0.0/location/11/","name":"Vandenberg SFB, CA, USA","country_code":"USA","map_image":"https://thespacedevs-prod.nyc3.digitaloceanspaces.com/media/map_images/location_11_20200803142416.jpg","total_launch_count":775,"total_landing_count":21},"map_image":"https://thespacedevs-prod.nyc3.digitaloceanspaces.com/media/map_images/pad_16_20200803143532.jpg","total_launch_count":163},"webcast_live":false,"image":"https://thespacedevs-prod.nyc3.digitaloceanspaces.com/media/images/falcon2520925_image_20221009234147.png","infographic":null,"program":[{"id":25,"url":"https://ll.thespacedevs.com/2.0.0/program/25/","name":"Starlink","description":"Starlink is a satellite internet constellation operated by American aerospace company SpaceX","agencies":[{"id":121,"url":"https://ll.thespacedevs.com/2.0.0/agencies/121/","name":"SpaceX","type":"Commercial"}],"image_url":"https://thespacedevs-prod.nyc3.digitaloceanspaces.com/media/images/starlink_program_20231228154508.jpeg","start_date":"2018-02-22T14:17:00Z","end_date":null,"info_url":"https://starlink.com","wiki_url":"https://en.wikipedia.org/wiki/Starlink"}]},{"id":"28c2b327-bb20-452d-b1df-c100265d6aa5","url":"https://ll.thespacedevs.com/2.0.0/launch/28c2b327-bb20-452d-b1df-c100265d6aa5/","launch_library_id":null,"slug":"long-march-2fg-shenzhou-19","name":"Long March 2F/G | Shenzhou 19","status":{"id":1,"name":"Go"},"net":"2024-10-29T20:27:00Z","window_end":"2024-10-29T20:57:00Z","window_start":"2024-10-29T20:17:00Z","inhold":false,"tbdtime":false,"tbddate":false,"probability":null,"holdreason":"","failreason":"","hashtag":null,"launch_service_provider":{"id":88,"url":"https://ll.thespacedevs.com/2.0.0/agencies/88/","name":"China Aerospace Science and Technology Corporation","type":"Government"},"rocket":{"id":8102,"configuration":{"id":84,"launch_library_id":111,"url":"https://ll.thespacedevs.com/2.0.0/config/launcher/84/","name":"Long March 2","family":"Long March","full_name":"Long March 2F/G","variant":"F/G"}},"mission":{"id":6660,"launch_library_id":null,"name":"Shenzhou 19","description":"Eighth crewed flight to the Chinese space station.","launch_designator":null,"type":"Human Exploration","orbit":{"id":8,"name":"Low Earth Orbit","abbrev":"LEO"}},"pad":{"id":37,"url":"https://ll.thespacedevs.com/2.0.0/pad/37/","agency_id":null,"name":"Launch Area 4 (SLS-1 / 921)","info_url":null,"wiki_url":"https://en.wikipedia.org/wiki/Jiuquan_Launch_Area_4","map_url":"https://www.google.com/maps?q=40.957893,100.290944","latitude":"40.957893","longitude":"100.290944","location":{"id":17,"url":"https://ll.thespacedevs.com/2.0.0/location/17/","name":"Jiuquan Satellite Launch Center, People's Republic of China","country_code":"CHN","map_image":"https://thespacedevs-prod.nyc3.digitaloceanspaces.com/media/map_images/location_17_20200803142429.jpg","total_launch_count":232,"total_landing_count":0},"map_image":"https://thespacedevs-prod.nyc3.digitaloceanspaces.com/media/map_images/pad_37_20200803143603.jpg","total_launch_count":23},"webcast_live":false,"image":"https://thespacedevs-prod.nyc3.digitaloceanspaces.com/media/images/long_march_2_image_20210908195835.jpeg","infographic":null,"program":[{"id":7,"url":"https://ll.thespacedevs.com/2.0.0/program/7/","name":"Shenzhou","description":"The Shenzhou program is a crewed spaceflight initiative by China. The program put the first Chinese citizen, Yang Liwei, into orbit on 15 October 2003.","agencies":[{"id":17,"url":"https://ll.thespacedevs.com/2.0.0/agencies/17/","name":"China National Space Administration","type":"Government"}],"image_url":"https://thespacedevs-prod.nyc3.digitaloceanspaces.com/media/images/shenzhou_program_20200820204745.PNG","start_date":"1993-01-01T00:00:00Z","end_date":null,"info_url":null,"wiki_url":"https://en.wikipedia.org/wiki/Shenzhou_program"},{"id":19,"url":"https://ll.thespacedevs.com/2.0.0/program/19/","name":"Tiangong space station","description":"The Tiangong space station is a space station placed in Low Earth orbit between 340 and 450 km above the surface.","agencies":[{"id":88,"url":"https://ll.thespacedevs.com/2.0.0/agencies/88/","name":"China Aerospace Science and Technology Corporation","type":"Government"}],"image_url":"https://thespacedevs-prod.nyc3.digitaloceanspaces.com/media/images/chinese2520spa_program_20210608105528.png","start_date":"2021-04-29T03:23:00Z","end_date":null,"info_url":null,"wiki_url":"https://en.wikipedia.org/wiki/Tiangong_space_station"}]},{"id":"48284305-279a-4118-9ae4-e2139db038b4","url":"https://ll.thespacedevs.com/2.0.0/launch/48284305-279a-4118-9ae4-e2139db038b4/","launch_library_id":null,"slug":"falcon-9-block-5-starlink-group-10-13","name":"Falcon 9 Block 5 | Starlink Group 10-13","status":{"id":2,"name":"TBD"},"net":"2024-10-30T21:10:00Z","window_end":"2024-10-31T01:10:00Z","window_start":"2024-10-30T21:10:00Z","inhold":false,"tbdtime":true,"tbddate":false,"probability":null,"holdreason":"","failreason":"","hashtag":null,"launch_service_provider":{"id":121,"url":"https://ll.thespacedevs.com/2.0.0/agencies/121/","name":"SpaceX","type":"Commercial"},"rocket":{"id":8393,"configuration":{"id":164,"launch_library_id":188,"url":"https://ll.thespacedevs.com/2.0.0/config/launcher/164/","name":"Falcon 9","family":"Falcon","full_name":"Falcon 9 Block 5","variant":"Block 5"}},"mission":{"id":6978,"launch_library_id":null,"name":"Starlink Group 10-13","description":"A batch of satellites for the Starlink mega-constellation - SpaceX's project for space-based Internet communication system.","launch_designator":null,"type":"Communications","orbit":{"id":8,"name":"Low Earth Orbit","abbrev":"LEO"}},"pad":{"id":80,"url":"https://ll.thespacedevs.com/2.0.0/pad/80/","agency_id":121,"name":"Space Launch Complex 40","info_url":null,"wiki_url":"https://en.wikipedia.org/wiki/Cape_Canaveral_Air_Force_Station_Space_Launch_Complex_40","map_url":"https://www.google.com/maps?q=28.56194122,-80.57735736","latitude":"28.56194122","longitude":"-80.57735736","location":{"id":12,"url":"https://ll.thespacedevs.com/2.0.0/location/12/","name":"Cape Canaveral SFS, FL, USA","country_code":"USA","map_image":"https://thespacedevs-prod.nyc3.digitaloceanspaces.com/media/map_images/location_12_20200803142519.jpg","total_launch_count":982,"total_landing_count":57},"map_image":"https://thespacedevs-prod.nyc3.digitaloceanspaces.com/media/map_images/pad_80_20200803143323.jpg","total_launch_count":268},"webcast_live":false,"image":"https://thespacedevs-prod.nyc3.digitaloceanspaces.com/media/images/falcon2520925_image_20221009234147.png","infographic":null,"program":[{"id":25,"url":"https://ll.thespacedevs.com/2.0.0/program/25/","name":"Starlink","description":"Starlink is a satellite internet constellation operated by American aerospace company SpaceX","agencies":[{"id":121,"url":"https://ll.thespacedevs.com/2.0.0/agencies/121/","name":"SpaceX","type":"Commercial"}],"image_url":"https://thespacedevs-prod.nyc3.digitaloceanspaces.com/media/images/starlink_program_20231228154508.jpeg","start_date":"2018-02-22T14:17:00Z","end_date":null,"info_url":"https://starlink.com","wiki_url":"https://en.wikipedia.org/wiki/Starlink"}]},{"id":"95a9c95c-1a30-4b34-8b11-16e765a26eb6","url":"https://ll.thespacedevs.com/2.0.0/launch/95a9c95c-1a30-4b34-8b11-16e765a26eb6/","launch_library_id":null,"slug":"soyuz-21b-kosmos-unknown-payload","name":"Soyuz 2.1b | Kosmos (Unknown Payload)","status":{"id":1,"name":"Go"},"net":"2024-10-31T07:00:00Z","window_end":"2024-10-31T09:00:00Z","window_start":"2024-10-31T07:00:00Z","inhold":false,"tbdtime":true,"tbddate":false,"probability":null,"holdreason":"","failreason":"","hashtag":null,"launch_service_provider":{"id":193,"url":"https://ll.thespacedevs.com/2.0.0/agencies/193/","name":"Russian Space Forces","type":"Government"},"rocket":{"id":8395,"configuration":{"id":15,"launch_library_id":3,"url":"https://ll.thespacedevs.com/2.0.0/config/launcher/15/","name":"Soyuz 2.1b","family":"Soyuz","full_name":"Soyuz 2.1b","variant":""}},"mission":{"id":6980,"launch_library_id":null,"name":"Kosmos (Unknown Payload)","description":"Russian military payload of unknown purposes.","launch_designator":null,"type":"Government/Top Secret","orbit":{"id":17,"name":"Sun-Synchronous Orbit","abbrev":"SSO"}},"pad":{"id":48,"url":"https://ll.thespacedevs.com/2.0.0/pad/48/","agency_id":163,"name":"Unknown Pad","info_url":null,"wiki_url":"https://en.wikipedia.org/wiki/Plesetsk_Cosmodrome","map_url":"https://www.google.com/maps?q=62.925556,40.577778","latitude":"62.925556","longitude":"40.577778","location":{"id":6,"url":"https://ll.thespacedevs.com/2.0.0/location/6/","name":"Plesetsk Cosmodrome, Russian Federation","country_code":"RUS","map_image":"https://thespacedevs-prod.nyc3.digitaloceanspaces.com/media/map_images/location_6_20200803142434.jpg","total_launch_count":1669,"total_landing_count":0},"map_image":"https://thespacedevs-prod.nyc3.digitaloceanspaces.com/media/map_images/pad_48_20200803143459.jpg","total_launch_count":0},"webcast_live":false,"image":"https://thespacedevs-prod.nyc3.digitaloceanspaces.com/media/images/soyuz_2.1b_image_20230802085331.jpg","infographic":null,"program":[]},{"id":"be86d592-5eb7-4565-ac7b-02de845d838e","url":"https://ll.thespacedevs.com/2.0.0/launch/be86d592-5eb7-4565-ac7b-02de845d838e/","launch_library_id":null,"slug":"falcon-9-block-5-starlink-group-9-10","name":"Falcon 9 Block 5 | Starlink Group 9-10","status":{"id":2,"name":"TBD"},"net":"2024-11-02T08:53:00Z","window_end":"2024-11-02T12:53:00Z","window_start":"2024-11-02T08:53:00Z","inhold":false,"tbdtime":true,"tbddate":false,"probability":null,"holdreason":"","failreason":"","hashtag":null,"launch_service_provider":{"id":121,"url":"https://ll.thespacedevs.com/2.0.0/agencies/121/","name":"SpaceX","type":"Commercial"},"rocket":{"id":8396,"configuration":{"id":164,"launch_library_id":188,"url":"https://ll.thespacedevs.com/2.0.0/config/launcher/164/","name":"Falcon 9","family":"Falcon","full_name":"Falcon 9 Block 5","variant":"Block 5"}},"mission":{"id":6981,"launch_library_id":null,"name":"Starlink Group 9-10","description":"A batch of satellites for the Starlink mega-constellation - SpaceX's project for space-based Internet communication system.","launch_designator":null,"type":"Communications","orbit":{"id":8,"name":"Low Earth Orbit","abbrev":"LEO"}},"pad":{"id":16,"url":"https://ll.thespacedevs.com/2.0.0/pad/16/","agency_id":null,"name":"Space Launch Complex 4E","info_url":null,"wiki_url":"https://en.wikipedia.org/wiki/Vandenberg_Space_Launch_Complex_4#SLC-4E","map_url":"https://www.google.com/maps?q=34.632,-120.611","latitude":"34.632","longitude":"-120.611","location":{"id":11,"url":"https://ll.thespacedevs.com/2.0.0/location/11/","name":"Vandenberg SFB, CA, USA","country_code":"USA","map_image":"https://thespacedevs-prod.nyc3.digitaloceanspaces.com/media/map_images/location_11_20200803142416.jpg","total_launch_count":775,"total_landing_count":21},"map_image":"https://thespacedevs-prod.nyc3.digitaloceanspaces.com/media/map_images/pad_16_20200803143532.jpg","total_launch_count":163},"webcast_live":false,"image":"https://thespacedevs-prod.nyc3.digitaloceanspaces.com/media/images/falcon2520925_image_20221009234147.png","infographic":null,"program":[{"id":25,"url":"https://ll.thespacedevs.com/2.0.0/program/25/","name":"Starlink","description":"Starlink is a satellite internet constellation operated by American aerospace company SpaceX","agencies":[{"id":121,"url":"https://ll.thespacedevs.com/2.0.0/agencies/121/","name":"SpaceX","type":"Commercial"}],"image_url":"https://thespacedevs-prod.nyc3.digitaloceanspaces.com/media/images/starlink_program_20231228154508.jpeg","start_date":"2018-02-22T14:17:00Z","end_date":null,"info_url":"https://starlink.com","wiki_url":"https://en.wikipedia.org/wiki/Starlink"}]},{"id":"aa429cd7-a947-430a-9956-72dff1ab9c60","url":"https://ll.thespacedevs.com/2.0.0/launch/aa429cd7-a947-430a-9956-72dff1ab9c60/","launch_library_id":null,"slug":"h3-22-dsn-3-kirameki-3","name":"H3-22 | DSN 3 (Kirameki 3)","status":{"id":2,"name":"TBD"},"net":"2024-11-03T06:46:00Z","window_end":"2024-11-03T08:30:00Z","window_start":"2024-11-03T06:46:00Z","inhold":false,"tbdtime":true,"tbddate":true,"probability":null,"holdreason":"","failreason":"","hashtag":null,"launch_service_provider":{"id":98,"url":"https://ll.thespacedevs.com/2.0.0/agencies/98/","name":"Mitsubishi Heavy Industries","type":"Commercial"},"rocket":{"id":7772,"configuration":{"id":486,"launch_library_id":null,"url":"https://ll.thespacedevs.com/2.0.0/config/launcher/486/","name":"H3-22","family":"H3","full_name":"H3-22","variant":"22"}},"mission":{"id":6290,"launch_library_id":null,"name":"DSN 3 (Kirameki 3)","description":"DSN 3, also known as Kirameki 3, is a geostationary communications satellite to be used for military communications by the Japanese military.","launch_designator":null,"type":"Communications","orbit":{"id":2,"name":"Geostationary Transfer Orbit","abbrev":"GTO"}},"pad":{"id":209,"url":"https://ll.thespacedevs.com/2.0.0/pad/209/","agency_id":37,"name":"Yoshinobu Launch Complex LP-2","info_url":null,"wiki_url":"https://en.wikipedia.org/wiki/Yoshinobu_Launch_Complex","map_url":"https://www.google.com/maps?q=30.400938,130.97564","latitude":"30.400938","longitude":"130.97564","location":{"id":26,"url":"https://ll.thespacedevs.com/2.0.0/location/26/","name":"Tanegashima Space Center, Japan","country_code":"JPN","map_image":"https://thespacedevs-prod.nyc3.digitaloceanspaces.com/media/map_images/location_26_20200803142507.jpg","total_launch_count":92,"total_landing_count":0},"map_image":"https://thespacedevs-prod.nyc3.digitaloceanspaces.com/media/map_images/pad_yoshinobu_launch_complex_lp-2_20230707124715.jpg","total_launch_count":12},"webcast_live":false,"image":"https://thespacedevs-prod.nyc3.digitaloceanspaces.com/media/images/h3-22_image_20230307130808.jpeg","infographic":null,"program":[]},{"id":"507a6df7-1c52-464a-a003-19aad7f6113e","url":"https://ll.thespacedevs.com/2.0.0/launch/507a6df7-1c52-464a-a003-19aad7f6113e/","launch_library_id":null,"slug":"falcon-9-block-5-starlink-group-6-77","name":"Falcon 9 Block 5 | Starlink Group 6-77","status":{"id":2,"name":"TBD"},"net":"2024-11-03T21:57:00Z","window_end":"2024-11-04T01:57:00Z","window_start":"2024-11-03T21:57:00Z","inhold":false,"tbdtime":true,"tbddate":false,"probability":null,"holdreason":"","failreason":"","hashtag":null,"launch_service_provider":{"id":121,"url":"https://ll.thespacedevs.com/2.0.0/agencies/121/","name":"SpaceX","type":"Commercial"},"rocket":{"id":8394,"configuration":{"id":164,"launch_library_id":188,"url":"https://ll.thespacedevs.com/2.0.0/config/launcher/164/","name":"Falcon 9","family":"Falcon","full_name":"Falcon 9 Block 5","variant":"Block 5"}},"mission":{"id":6979,"launch_library_id":null,"name":"Starlink Group 6-77","description":"A batch of satellites for the Starlink mega-constellation - SpaceX's project for space-based Internet communication system.","launch_designator":null,"type":"Communications","orbit":{"id":8,"name":"Low Earth Orbit","abbrev":"LEO"}},"pad":{"id":80,"url":"https://ll.thespacedevs.com/2.0.0/pad/80/","agency_id":121,"name":"Space Launch Complex 40","info_url":null,"wiki_url":"https://en.wikipedia.org/wiki/Cape_Canaveral_Air_Force_Station_Space_Launch_Complex_40","map_url":"https://www.google.com/maps?q=28.56194122,-80.57735736","latitude":"28.56194122","longitude":"-80.57735736","location":{"id":12,"url":"https://ll.thespacedevs.com/2.0.0/location/12/","name":"Cape Canaveral SFS, FL, USA","country_code":"USA","map_image":"https://thespacedevs-prod.nyc3.digitaloceanspaces.com/media/map_images/location_12_20200803142519.jpg","total_launch_count":982,"total_landing_count":57},"map_image":"https://thespacedevs-prod.nyc3.digitaloceanspaces.com/media/map_images/pad_80_20200803143323.jpg","total_launch_count":268},"webcast_live":false,"image":"https://thespacedevs-prod.nyc3.digitaloceanspaces.com/media/images/falcon2520925_image_20221009234147.png","infographic":null,"program":[{"id":25,"url":"https://ll.thespacedevs.com/2.0.0/program/25/","name":"Starlink","description":"Starlink is a satellite internet constellation operated by American aerospace company SpaceX","agencies":[{"id":121,"url":"https://ll.thespacedevs.com/2.0.0/agencies/121/","name":"SpaceX","type":"Commercial"}],"image_url":"https://thespacedevs-prod.nyc3.digitaloceanspaces.com/media/images/starlink_program_20231228154508.jpeg","start_date":"2018-02-22T14:17:00Z","end_date":null,"info_url":"https://starlink.com","wiki_url":"https://en.wikipedia.org/wiki/Starlink"}]},{"id":"3dfcd148-b684-447a-acde-e6195dbd12f1","url":"https://ll.thespacedevs.com/2.0.0/launch/3dfcd148-b684-447a-acde-e6195dbd12f1/","launch_library_id":null,"slug":"electron-changes-in-latitudes-changes-in-attitudes","name":"Electron | Changes In Latitudes, Changes In Attitudes","status":{"id":1,"name":"Go"},"net":"2024-11-04T10:30:00Z","window_end":"2024-11-04T10:30:00Z","window_start":"2024-11-04T10:30:00Z","inhold":false,"tbdtime":false,"tbddate":false,"probability":null,"holdreason":"","failreason":"","hashtag":null,"launch_service_provider":{"id":147,"url":"https://ll.thespacedevs.com/2.0.0/agencies/147/","name":"Rocket Lab","type":"Commercial"},"rocket":{"id":8382,"configuration":{"id":26,"launch_library_id":148,"url":"https://ll.thespacedevs.com/2.0.0/config/launcher/26/","name":"Electron","family":"","full_name":"Electron","variant":""}},"mission":{"id":6963,"launch_library_id":null,"name":"Changes In Latitudes, Changes In Attitudes","description":"Launch of a yet to identified satellite to SSO for an undisclosed customer. The customer is suspected to be Low Earth Orbit communication satellite constellation operator E-Space.\r\nLaunch contract was signed less than 2 months before launch.","launch_designator":null,"type":"Communications","orbit":{"id":17,"name":"Sun-Synchronous Orbit","abbrev":"SSO"}},"pad":{"id":185,"url":"https://ll.thespacedevs.com/2.0.0/pad/185/","agency_id":147,"name":"Rocket Lab Launch Complex 1B","info_url":null,"wiki_url":"https://en.wikipedia.org/wiki/Rocket_Lab_Launch_Complex_1","map_url":"https://www.google.com/maps?q=-39.262833,177.864469","latitude":"-39.262833","longitude":"177.864469","location":{"id":10,"url":"https://ll.thespacedevs.com/2.0.0/location/10/","name":"Rocket Lab Launch Complex 1, Mahia Peninsula, New Zealand","country_code":"NZL","map_image":"https://thespacedevs-prod.nyc3.digitaloceanspaces.com/media/map_images/location_10_20200803142509.jpg","total_launch_count":49,"total_landing_count":17},"map_image":"https://thespacedevs-prod.nyc3.digitaloceanspaces.com/media/map_images/pad_185_20200803143540.jpg","total_launch_count":22},"webcast_live":false,"image":"https://thespacedevs-prod.nyc3.digitaloceanspaces.com/media/images/electron_image_20190705175640.jpeg","infographic":null,"program":[]},{"id":"a27cba79-7c56-40c8-8af1-eb9f871b43ad","url":"https://ll.thespacedevs.com/2.0.0/launch/a27cba79-7c56-40c8-8af1-eb9f871b43ad/","launch_library_id":null,"slug":"soyuz-21bfregat-m-ionosfera-m-1-2","name":"Soyuz 2.1b/Fregat-M | Ionosfera-M 1 & 2","status":{"id":1,"name":"Go"},"net":"2024-11-04T23:18:40Z","window_end":"2024-11-04T23:18:40Z","window_start":"2024-11-04T23:18:40Z","inhold":false,"tbdtime":false,"tbddate":false,"probability":null,"holdreason":"","failreason":"","hashtag":null,"launch_service_provider":{"id":63,"url":"https://ll.thespacedevs.com/2.0.0/agencies/63/","name":"Russian Federal Space Agency (ROSCOSMOS)","type":"Government"},"rocket":{"id":8031,"configuration":{"id":134,"launch_library_id":153,"url":"https://ll.thespacedevs.com/2.0.0/config/launcher/134/","name":"Soyuz 2.1b/Fregat-M","family":"Soyuz","full_name":"Soyuz 2.1b Fregat-M","variant":"Fregat-M"}},"mission":{"id":6562,"launch_library_id":null,"name":"Ionosfera-M 1 & 2","description":"Ionosfera is a constellation of four ionospheric and magnetospheric research satellites developed by for Roscosmos for the project Ionozond.\r\n\r\nThe satellites will operate on circular sun-synchronous orbits (SSO), at altitude of about 800 km and located in two orbital planes of two satellites each. \r\n\r\nThe following science instruments are carried on the satellites:\r\n\r\n* SPER/1 Plasma and energy radiation spectrometer\r\n* SG/1 Gamma-ray spectrometer\r\n* GALS/1 Galactic cosmic ray spectrometer / 1\r\n* LAERTES On-board Ionosonde\r\n* NBK/2 Low-frequency wave complex\r\n* ESEP Ionospheric plasma energy spectrometer\r\n* Ozonometer-TM Ozonometer\r\n* MayaK On-board radio transmitters\r\n* PES GPS-GLONASS device","launch_designator":null,"type":"Earth Science","orbit":{"id":17,"name":"Sun-Synchronous Orbit","abbrev":"SSO"}},"pad":{"id":83,"url":"https://ll.thespacedevs.com/2.0.0/pad/83/","agency_id":63,"name":"Cosmodrome Site 1S","info_url":null,"wiki_url":"https://en.wikipedia.org/wiki/Vostochny_Cosmodrome","map_url":"https://www.google.com/maps?q=51.884395,128.333932","latitude":"51.884395","longitude":"128.333932","location":{"id":18,"url":"https://ll.thespacedevs.com/2.0.0/location/18/","name":"Vostochny Cosmodrome, Siberia, Russian Federation","country_code":"RUS","map_image":"https://thespacedevs-prod.nyc3.digitaloceanspaces.com/media/map_images/location_18_20200803142401.jpg","total_launch_count":17,"total_landing_count":0},"map_image":"https://thespacedevs-prod.nyc3.digitaloceanspaces.com/media/map_images/pad_83_20200803143544.jpg","total_launch_count":16},"webcast_live":false,"image":"https://thespacedevs-prod.nyc3.digitaloceanspaces.com/media/images/soyuz_2.1b_image_20230802085331.jpg","infographic":null,"program":[]},{"id":"f97bce95-052e-4fa9-80e8-dbedf16bc516","url":"https://ll.thespacedevs.com/2.0.0/launch/f97bce95-052e-4fa9-80e8-dbedf16bc516/","launch_library_id":null,"slug":"falcon-9-block-5-dragon-crs-2-spx-31","name":"Falcon 9 Block 5 | Dragon CRS-2 SpX-31","status":{"id":2,"name":"TBD"},"net":"2024-11-05T02:29:00Z","window_end":"2024-11-05T02:29:00Z","window_start":"2024-11-05T02:29:00Z","inhold":false,"tbdtime":false,"tbddate":false,"probability":null,"holdreason":"","failreason":"","hashtag":null,"launch_service_provider":{"id":121,"url":"https://ll.thespacedevs.com/2.0.0/agencies/121/","name":"SpaceX","type":"Commercial"},"rocket":{"id":7744,"configuration":{"id":164,"launch_library_id":188,"url":"https://ll.thespacedevs.com/2.0.0/config/launcher/164/","name":"Falcon 9","family":"Falcon","full_name":"Falcon 9 Block 5","variant":"Block 5"}},"mission":{"id":6262,"launch_library_id":null,"name":"Dragon CRS-2 SpX-31","description":"31st commercial resupply services mission to the International Space Station operated by SpaceX. The flight will be conducted under the second Commercial Resupply Services contract with NASA.\r\n\r\nCargo Dragon 2 brings supplies and payloads, including critical materials to directly support science and research investigations that occur onboard the orbiting laboratory.","launch_designator":null,"type":"Resupply","orbit":{"id":8,"name":"Low Earth Orbit","abbrev":"LEO"}},"pad":{"id":87,"url":"https://ll.thespacedevs.com/2.0.0/pad/87/","agency_id":121,"name":"Launch Complex 39A","info_url":null,"wiki_url":"https://en.wikipedia.org/wiki/Kennedy_Space_Center_Launch_Complex_39#Launch_Pad_39A","map_url":"https://www.google.com/maps?q=28.60822681,-80.60428186","latitude":"28.60822681","longitude":"-80.60428186","location":{"id":27,"url":"https://ll.thespacedevs.com/2.0.0/location/27/","name":"Kennedy Space Center, FL, USA","country_code":"USA","map_image":"https://thespacedevs-prod.nyc3.digitaloceanspaces.com/media/map_images/location_27_20200803142447.jpg","total_launch_count":244,"total_landing_count":0},"map_image":"https://thespacedevs-prod.nyc3.digitaloceanspaces.com/media/map_images/pad_87_20200803143537.jpg","total_launch_count":186},"webcast_live":false,"image":"https://thespacedevs-prod.nyc3.digitaloceanspaces.com/media/images/falcon2520925_image_20210520085648.jpeg","infographic":null,"program":[{"id":11,"url":"https://ll.thespacedevs.com/2.0.0/program/11/","name":"Commercial Resupply Services","description":"Commercial Resupply Services (CRS) are a series of flights awarded by NASA for the delivery of cargo and supplies to the International Space Station.The first CRS contracts were signed in 2008 and awarded $1.6 billion to SpaceX for twelve cargo Dragon and $1.9 billion to Orbital Sciences for eight Cygnus flights, covering deliveries to 2016. The Falcon 9 and Antares rockets were also developed under the CRS program to deliver cargo spacecraft to the ISS.","agencies":[{"id":44,"url":"https://ll.thespacedevs.com/2.0.0/agencies/44/","name":"National Aeronautics and Space Administration","type":"Government"},{"id":257,"url":"https://ll.thespacedevs.com/2.0.0/agencies/257/","name":"Northrop Grumman Space Systems","type":"Commercial"},{"id":1020,"url":"https://ll.thespacedevs.com/2.0.0/agencies/1020/","name":"Sierra Nevada Corporation","type":"Commercial"},{"id":121,"url":"https://ll.thespacedevs.com/2.0.0/agencies/121/","name":"SpaceX","type":"Commercial"}],"image_url":"https://thespacedevs-prod.nyc3.digitaloceanspaces.com/media/images/commercial2520_program_20201129212219.png","start_date":"2008-12-23T00:00:00Z","end_date":null,"info_url":null,"wiki_url":"https://en.wikipedia.org/wiki/Commercial_Resupply_Services#Commercial_Resupply_Services"},{"id":17,"url":"https://ll.thespacedevs.com/2.0.0/program/17/","name":"International Space Station","description":"The International Space Station programme is tied together by a complex set of legal, political and financial agreements between the sixteen nations involved in the project, governing ownership of the various components, rights to crewing and utilization, and responsibilities for crew rotation and resupply of the International Space Station. It was conceived in 1984 by President Ronald Reagan, during the Space Station Freedom project as it was originally called.","agencies":[{"id":16,"url":"https://ll.thespacedevs.com/2.0.0/agencies/16/","name":"Canadian Space Agency","type":"Government"},{"id":27,"url":"https://ll.thespacedevs.com/2.0.0/agencies/27/","name":"European Space Agency","type":"Multinational"},{"id":37,"url":"https://ll.thespacedevs.com/2.0.0/agencies/37/","name":"Japan Aerospace Exploration Agency","type":"Government"},{"id":44,"url":"https://ll.thespacedevs.com/2.0.0/agencies/44/","name":"National Aeronautics and Space Administration","type":"Government"},{"id":63,"url":"https://ll.thespacedevs.com/2.0.0/agencies/63/","name":"Russian Federal Space Agency (ROSCOSMOS)","type":"Government"}],"image_url":"https://thespacedevs-prod.nyc3.digitaloceanspaces.com/media/images/international2_program_20201129184745.png","start_date":"1998-11-20T06:40:00Z","end_date":null,"info_url":"https://www.nasa.gov/mission_pages/station/main/index.html","wiki_url":"https://en.wikipedia.org/wiki/International_Space_Station_programme"}]}]}